<?xml version="1.0" encoding="iso-8859-1"?>
<!-- Generator: Adobe Illustrator 18.1.1, SVG Export Plug-In . SVG Version: 6.00 Build 0)  -->
<svg version="1.1" id="Layer_1" xmlns="http://www.w3.org/2000/svg" xmlns:xlink="http://www.w3.org/1999/xlink" x="0px" y="0px"
	 viewBox="0 0 90.233 32.038" style="enable-background:new 0 0 90.233 32.038;" xml:space="preserve">
<g>
	<g>
		<path style="fill:#FFFFFF;" d="M35.884,14.234c-0.111,0-0.244-0.124-0.876-0.755c-0.131-0.12-5.251-5.594-6-6.411l0.148,5.463
			c0.024,1.007,0.162,1.23,0.426,1.306c0.108,0.03,0.179,0.038,0.247,0.047l0.093,0.015c0.083,0.015,0.134,0.063,0.134,0.127
			c0,0.119-0.126,0.119-0.235,0.119l-1.151,0.003l-0.916,0.001c-0.084,0-0.225,0-0.225-0.131c0-0.053,0.034-0.109,0.132-0.109
			c0.129,0,0.26-0.023,0.394-0.069c0.26-0.072,0.328-0.366,0.328-1.434l-0.016-6.733c0-0.415,0.048-0.548,0.194-0.548
			c0.08,0,0.183,0.107,0.33,0.272c0.038,0.042,0.073,0.081,0.104,0.112c0.032,0.036,5.616,6.099,6.419,6.948l-0.126-5.805
			c-0.011-0.771-0.093-0.979-0.416-1.063l-0.134-0.031c-0.121-0.028-0.193-0.045-0.258-0.045c-0.089,0-0.133-0.04-0.133-0.12
			c0-0.101,0.096-0.101,0.173-0.101h0.067l1.052-0.002l0.964-0.001c0.096,0,0.24,0,0.24,0.12c0,0.091-0.099,0.104-0.152,0.112
			c-0.067,0.008-0.119,0.013-0.243,0.043c-0.346,0.074-0.396,0.279-0.396,0.995l-0.024,6.811
			C36.027,14.128,36.01,14.234,35.884,14.234L35.884,14.234z"/>
		<path style="fill:#FFFFFF;" d="M74.839,14.234c-0.111,0-0.244-0.124-0.877-0.755c-0.137-0.125-5.254-5.594-5.999-6.411
			l0.148,5.463c0.023,0.913,0.123,1.218,0.426,1.306c0.107,0.03,0.179,0.038,0.246,0.047l0.092,0.015
			c0.083,0.015,0.135,0.063,0.135,0.127c0,0.119-0.126,0.119-0.236,0.119l-1.151,0.003l-0.917,0.001c-0.084,0-0.224,0-0.224-0.131
			c0-0.053,0.033-0.109,0.132-0.109c0.128,0,0.26-0.023,0.393-0.069c0.262-0.072,0.329-0.367,0.329-1.434L67.32,5.672
			c0-0.415,0.048-0.548,0.194-0.548c0.081,0,0.183,0.107,0.331,0.272c0.038,0.042,0.073,0.081,0.103,0.112
			c0.034,0.037,5.628,6.11,6.42,6.948l-0.127-5.805c-0.011-0.771-0.092-0.979-0.416-1.063l-0.137-0.031
			c-0.119-0.028-0.19-0.045-0.254-0.045c-0.089,0-0.133-0.04-0.133-0.12c0-0.101,0.096-0.101,0.171-0.101h0.069l1.052-0.002
			l0.963-0.001c0.097,0,0.242,0,0.242,0.12c0,0.091-0.1,0.105-0.154,0.112c-0.066,0.008-0.119,0.013-0.241,0.043
			c-0.349,0.074-0.398,0.279-0.398,0.995l-0.024,6.811C74.981,14.137,74.966,14.234,74.839,14.234L74.839,14.234z"/>
		<path style="fill:#FFFFFF;" d="M45.249,14.144h-1.694c-0.228,0-0.388-0.009-0.388-0.119c0-0.043,0.019-0.096,0.111-0.12
			c0.017-0.006,0.036-0.024,0.049-0.052c0.017-0.033,0.036-0.106-0.007-0.225l-1.093-2.98c-0.019-0.037-0.031-0.046-0.067-0.046
			l-2.747,0.883c-0.032,0.011-0.077,0.038-0.101,0.096l-0.419,1.267c-0.103,0.288-0.16,0.562-0.16,0.766
			c0,0.219,0.241,0.299,0.402,0.299h0.091c0.153,0,0.164,0.088,0.164,0.115c0,0.117-0.115,0.117-0.198,0.117h-0.907H37.11
			c-0.108,0-0.242,0-0.242-0.125c0-0.086,0.097-0.102,0.139-0.11l0.073-0.011l0.149-0.022c0.513-0.071,0.697-0.481,0.902-1.055
			l2.64-7.219c0.144-0.394,0.196-0.478,0.294-0.478c0.099,0,0.151,0.078,0.292,0.442c0.05,0.128,0.236,0.613,0.493,1.283
			c0.64,1.671,1.711,4.467,2.216,5.727c0.397,0.984,0.689,1.186,0.945,1.26c0.172,0.058,0.23,0.065,0.339,0.065
			c0.099,0,0.157,0.047,0.157,0.125C45.506,14.144,45.351,14.144,45.249,14.144L45.249,14.144z M40.883,6.964
			c-0.009,0.012-0.024,0.039-0.045,0.103l-1.216,3.67l2.346-0.759c0.026-0.007,0.028-0.007,0.015-0.057l-1.061-2.864
			C40.905,7.001,40.891,6.976,40.883,6.964L40.883,6.964z"/>
		<path style="fill:#FFFFFF;" d="M84.081,14.144h-1.696c-0.227,0-0.386-0.009-0.386-0.119c0-0.042,0.019-0.095,0.109-0.12
			c0.019-0.006,0.037-0.024,0.05-0.052c0.018-0.033,0.037-0.106-0.006-0.225l-1.092-2.98c-0.019-0.036-0.032-0.046-0.069-0.046
			l-2.747,0.883c-0.033,0.011-0.078,0.038-0.1,0.094l-0.42,1.268c-0.105,0.291-0.162,0.563-0.162,0.766
			c0,0.218,0.249,0.299,0.404,0.299h0.091c0.153,0,0.164,0.088,0.164,0.115c0,0.117-0.115,0.117-0.198,0.117h-0.908h-1.173
			c-0.107,0-0.242,0-0.242-0.125c0-0.087,0.099-0.102,0.139-0.11l0.072-0.011l0.151-0.022c0.511-0.07,0.696-0.481,0.902-1.055
			l2.639-7.219c0.143-0.394,0.196-0.478,0.294-0.478c0.099,0,0.151,0.078,0.292,0.442c0.05,0.128,0.237,0.613,0.492,1.283
			c0.641,1.671,1.711,4.467,2.217,5.727c0.397,0.984,0.69,1.186,0.945,1.26c0.121,0.04,0.186,0.048,0.253,0.056
			c0.029,0.003,0.057,0.007,0.09,0.012c0.125,0.021,0.139,0.094,0.14,0.124v0.017l-0.026,0.048
			C84.265,14.128,84.199,14.144,84.081,14.144L84.081,14.144z M79.714,6.964c-0.008,0.012-0.023,0.039-0.045,0.103l-1.215,3.67
			l2.347-0.759c0.025-0.007,0.027-0.007,0.015-0.057l-1.06-2.864C79.736,7.001,79.723,6.976,79.714,6.964L79.714,6.964z"/>
		<path style="fill:#FFFFFF;" d="M53.052,14.142c-0.073,0-0.223,0-0.223-0.13c0-0.053,0.033-0.11,0.132-0.11
			c0.103,0,0.243-0.024,0.339-0.046c0.196-0.039,0.256-0.232,0.307-0.597c0.058-0.484,0.058-1.382,0.058-2.517V8.697
			c0-1.813,0-2.139-0.022-2.508c-0.024-0.381-0.131-0.558-0.371-0.613c-0.123-0.033-0.252-0.045-0.334-0.045
			c-0.065,0-0.132-0.038-0.132-0.109c0-0.131,0.152-0.131,0.225-0.131h2.273c0.074,0,0.224,0,0.224,0.131
			c0,0.064-0.054,0.109-0.131,0.109c-0.063,0-0.105,0.007-0.186,0.021l-0.076,0.013c-0.274,0.051-0.37,0.203-0.394,0.624
			c-0.024,0.37-0.024,0.696-0.024,2.509v2.046c0,1.135,0,2.032,0.059,2.518c0.036,0.362,0.114,0.565,0.418,0.605
			c0.168,0.024,0.211,0.031,0.305,0.031c0.097,0,0.13,0.059,0.13,0.11c0,0.06-0.038,0.131-0.223,0.131l-1.492,0.003L53.052,14.142
			L53.052,14.142z"/>
		<path style="fill:#FFFFFF;" d="M61.097,14.316c-3.126,0-4.55-2.389-4.55-4.608c0-1.772,1.254-4.584,4.619-4.584
			c2.756,0,4.609,1.766,4.609,4.398C65.775,12.3,63.807,14.316,61.097,14.316L61.097,14.316z M61.085,5.596
			c-2.07,0-3.355,1.451-3.355,3.787c0,2.599,1.514,4.413,3.68,4.413c0.529,0,3.169-0.19,3.169-3.949
			C64.58,6.928,62.768,5.596,61.085,5.596L61.085,5.596z"/>
		<path style="fill:#FFFFFF;" d="M89.513,14.143h-4.269c-0.098,0-0.207,0-0.207-0.121c0-0.048,0.033-0.103,0.132-0.115
			c0.128-0.017,0.228-0.029,0.322-0.049c0.193-0.039,0.254-0.235,0.306-0.607c0.057-0.469,0.068-1.342,0.068-2.508V8.697
			c0-1.81,0-2.136-0.024-2.505c-0.021-0.37-0.093-0.549-0.469-0.628c-0.083-0.02-0.206-0.033-0.318-0.033
			c-0.064,0-0.134-0.045-0.134-0.116c0-0.124,0.116-0.124,0.21-0.124h2.442c0.09,0,0.214,0,0.214,0.124
			c0,0.059-0.048,0.101-0.13,0.111l-0.074,0.008c-0.058,0.007-0.124,0.014-0.22,0.03c-0.293,0.052-0.396,0.204-0.421,0.626
			C86.92,6.562,86.92,6.888,86.92,8.697v2.069c0,1.585,0.037,2.428,0.243,2.635c0.166,0.166,0.434,0.256,1.369,0.256
			c0.641,0,1.122-0.065,1.382-0.381c0.146-0.178,0.229-0.364,0.264-0.581c0.007-0.054,0.023-0.184,0.143-0.184
			c0.109,0,0.109,0.118,0.109,0.213c0,0.137-0.052,0.735-0.145,1.077C90.195,14.096,90.134,14.143,89.513,14.143L89.513,14.143z"/>
		<path style="fill:#FFFFFF;" d="M49.285,14.146h-2.377c-0.073,0-0.225,0-0.225-0.133c0-0.051,0.034-0.108,0.132-0.108
			c0.121,0,0.279-0.032,0.341-0.045c0.194-0.041,0.258-0.244,0.306-0.608c0.058-0.475,0.069-1.346,0.069-2.507V5.868l-1.68,0.021
			c-0.674,0.011-1.161,0.075-1.343,0.347c-0.108,0.165-0.129,0.216-0.157,0.277c-0.044,0.098-0.085,0.162-0.161,0.162
			c-0.033,0-0.071-0.021-0.093-0.053c-0.023-0.033-0.028-0.072-0.015-0.112c0.011-0.03,0.132-0.309,0.302-0.703
			c0.085-0.195,0.159-0.365,0.175-0.405c0.087-0.208,0.129-0.278,0.203-0.278c0.038,0,0.072,0.018,0.116,0.041
			c0.07,0.036,0.174,0.09,0.37,0.105c0.336,0.034,0.706,0.052,0.843,0.052h4.361c0.336,0,0.612-0.019,0.818-0.057
			c0.095-0.014,0.168-0.03,0.223-0.043c0.05-0.01,0.084-0.018,0.109-0.018c0.098,0,0.098,0.116,0.098,0.186v1.179
			c0,0.176-0.091,0.19-0.12,0.19c-0.114,0-0.132-0.123-0.14-0.237c-0.03-0.3-0.216-0.61-1.43-0.636l-1.426-0.021v4.877v0.276
			c0,1.001,0,1.791,0.052,2.236c0.036,0.362,0.114,0.565,0.42,0.606l0.237,0.034l0.082,0.01c0.103,0.015,0.125,0.07,0.125,0.115
			C49.502,14.146,49.35,14.146,49.285,14.146L49.285,14.146z"/>
		<path style="fill:#FFFFFF;" d="M60.883,26.906h-1.694c-0.227,0-0.388-0.009-0.388-0.12c0-0.035,0.015-0.097,0.112-0.119
			c0.016-0.005,0.035-0.026,0.049-0.054c0.016-0.033,0.035-0.106-0.007-0.224l-1.092-2.98c-0.019-0.036-0.031-0.045-0.069-0.045
			l-2.748,0.884c-0.048,0.016-0.082,0.049-0.101,0.095l-0.417,1.266c-0.104,0.289-0.161,0.561-0.161,0.766
			c0,0.219,0.242,0.298,0.404,0.298h0.09c0.153,0,0.165,0.087,0.165,0.114c0,0.117-0.115,0.117-0.199,0.117h-0.908h-1.175
			c-0.108,0-0.241,0-0.241-0.124c0-0.088,0.102-0.104,0.14-0.11l0.222-0.032c0.511-0.072,0.697-0.483,0.901-1.056l2.641-7.219
			c0.142-0.394,0.195-0.479,0.292-0.479c0.099,0,0.152,0.079,0.293,0.443c0.052,0.132,0.25,0.649,0.52,1.356
			c0.632,1.651,1.69,4.412,2.189,5.654c0.396,0.982,0.687,1.184,0.944,1.259c0.121,0.039,0.186,0.047,0.254,0.055
			c0.028,0.004,0.058,0.007,0.091,0.012c0.102,0.017,0.138,0.075,0.138,0.125v0.016l-0.027,0.049
			C61.068,26.89,61.002,26.906,60.883,26.906L60.883,26.906z M56.517,19.727c-0.009,0.011-0.023,0.038-0.044,0.102l-1.216,3.67
			l2.346-0.758c0.026-0.017,0.018-0.045,0.017-0.054l-1.062-2.866C56.538,19.762,56.524,19.737,56.517,19.727L56.517,19.727z"/>
		<path style="fill:#FFFFFF;" d="M33.117,26.906l-1.506-0.001h-0.873c-0.073,0-0.225,0-0.225-0.133c0-0.049,0.034-0.107,0.132-0.107
			c0.086,0,0.212-0.018,0.34-0.045c0.193-0.041,0.255-0.235,0.307-0.608c0.054-0.461,0.067-6.819,0.068-7.384l-1.68,0.023
			c-0.673,0.01-1.159,0.072-1.342,0.346c-0.103,0.158-0.128,0.212-0.154,0.269c-0.047,0.105-0.087,0.171-0.164,0.171
			c-0.034,0-0.07-0.021-0.093-0.053c-0.023-0.032-0.028-0.072-0.013-0.112c0.01-0.031,0.157-0.369,0.333-0.775l0.143-0.332
			c0.087-0.208,0.13-0.278,0.203-0.278c0.038,0,0.073,0.018,0.117,0.042c0.073,0.037,0.175,0.089,0.369,0.105
			c0.339,0.034,0.708,0.051,0.844,0.051h4.36c0.336,0,0.612-0.019,0.818-0.057c0.096-0.013,0.17-0.029,0.225-0.042
			c0.049-0.01,0.083-0.018,0.107-0.018c0.098,0,0.098,0.115,0.098,0.184v1.181c0,0.176-0.092,0.189-0.121,0.189
			c-0.103,0-0.13-0.09-0.14-0.236c-0.03-0.3-0.217-0.61-1.43-0.636l-1.425-0.023c0,0.567-0.003,6.928,0.051,7.389
			c0.036,0.361,0.114,0.564,0.42,0.606l0.124,0.019l0.194,0.027c0.104,0.012,0.126,0.069,0.126,0.114
			C33.332,26.906,33.181,26.906,33.117,26.906L33.117,26.906z"/>
		<path style="fill:#FFFFFF;" d="M64.812,26.906l-1.506-0.001h-0.871c-0.074,0-0.224,0-0.224-0.133c0-0.049,0.034-0.107,0.132-0.107
			c0.121,0,0.278-0.031,0.34-0.045c0.194-0.041,0.258-0.244,0.305-0.608c0.057-0.461,0.07-6.819,0.07-7.384l-1.679,0.023
			c-0.675,0.01-1.16,0.072-1.344,0.346c-0.103,0.161-0.128,0.214-0.154,0.274c-0.044,0.097-0.085,0.167-0.162,0.167
			c-0.033,0-0.071-0.021-0.093-0.052c-0.023-0.033-0.028-0.073-0.016-0.111c0.011-0.031,0.154-0.36,0.281-0.654
			c0.092-0.215,0.178-0.411,0.196-0.455c0.088-0.208,0.13-0.278,0.204-0.278c0.037,0,0.073,0.018,0.116,0.042
			c0.074,0.037,0.176,0.089,0.369,0.105c0.34,0.034,0.709,0.051,0.845,0.051h4.359c0.336,0,0.611-0.019,0.817-0.057
			c0.097-0.013,0.17-0.029,0.225-0.042c0.05-0.01,0.083-0.018,0.107-0.018c0.099,0,0.099,0.115,0.099,0.184v1.181
			c0,0.176-0.092,0.189-0.12,0.189c-0.102,0-0.13-0.09-0.141-0.236c-0.029-0.301-0.215-0.61-1.43-0.636l-1.424-0.023
			c0,0.567-0.004,6.928,0.052,7.389c0.035,0.361,0.114,0.564,0.42,0.606l0.131,0.02l0.186,0.026
			c0.105,0.012,0.128,0.069,0.128,0.114C65.029,26.906,64.877,26.906,64.812,26.906L64.812,26.906z"/>
		<path style="fill:#FFFFFF;" d="M87.817,26.906l-1.506-0.001H85.44c-0.074,0-0.225,0-0.225-0.133c0-0.049,0.035-0.107,0.133-0.107
			c0.085,0,0.212-0.018,0.341-0.045c0.194-0.041,0.254-0.235,0.306-0.608c0.055-0.461,0.067-6.819,0.069-7.384l-1.68,0.023
			c-0.673,0.01-1.16,0.072-1.342,0.346c-0.104,0.158-0.128,0.212-0.154,0.269c-0.048,0.105-0.088,0.171-0.165,0.171
			c-0.032,0-0.07-0.021-0.092-0.052c-0.023-0.033-0.028-0.073-0.016-0.111c0.011-0.031,0.154-0.36,0.281-0.654
			c0.093-0.215,0.179-0.411,0.196-0.455c0.087-0.208,0.13-0.278,0.202-0.278c0.038,0,0.074,0.018,0.117,0.042
			c0.073,0.037,0.176,0.089,0.37,0.105c0.339,0.034,0.708,0.051,0.844,0.051h4.36c0.335,0,0.612-0.019,0.819-0.057
			c0.096-0.013,0.169-0.029,0.224-0.042c0.05-0.01,0.083-0.018,0.109-0.018c0.096,0,0.096,0.112,0.096,0.184v1.181
			c0,0.176-0.091,0.189-0.121,0.189c-0.103,0-0.129-0.09-0.139-0.236c-0.029-0.3-0.216-0.61-1.43-0.636l-1.425-0.023
			c0,0.567-0.002,6.928,0.052,7.389c0.037,0.361,0.115,0.564,0.42,0.606l0.124,0.019l0.195,0.027
			c0.104,0.012,0.126,0.069,0.126,0.114C88.034,26.906,87.882,26.906,87.817,26.906L87.817,26.906z"/>
		<path style="fill:#FFFFFF;" d="M45.329,26.914h-2.37c-0.067,0-0.225,0-0.225-0.131c0-0.05,0.035-0.11,0.133-0.11
			c0.117,0,0.277-0.032,0.34-0.045c0.194-0.038,0.256-0.235,0.307-0.607c0.056-0.478,0.057-3.705,0.057-3.737l-4.959-0.031
			c-0.031,0.063-0.03,3.29,0.028,3.77c0.036,0.362,0.114,0.566,0.419,0.605c0.065,0.009,0.112,0.019,0.153,0.026
			c0.06,0.012,0.103,0.02,0.164,0.02c0.097,0,0.132,0.06,0.132,0.11c0,0.06-0.039,0.131-0.225,0.131h-2.368
			c-0.073,0-0.225,0-0.225-0.131c0-0.052,0.035-0.11,0.131-0.11c0.083,0,0.207-0.016,0.34-0.045
			c0.194-0.038,0.256-0.235,0.307-0.607c0.062-0.517,0.06-6.759,0.041-7.065c-0.022-0.371-0.095-0.549-0.469-0.627
			c-0.063-0.017-0.127-0.025-0.191-0.035l-0.102-0.017c-0.034-0.006-0.125-0.023-0.125-0.108c0-0.116,0.119-0.116,0.225-0.116h2.352
			c0.094,0,0.223,0,0.223,0.121c0,0.063-0.056,0.108-0.133,0.108c-0.049,0-0.095,0.009-0.156,0.022l-0.125,0.024
			c-0.273,0.05-0.373,0.208-0.398,0.627c-0.023,0.38-0.029,0.735-0.029,2.503v0.243l4.961,0.031l0.03-0.274
			c0-1.828-0.008-2.138-0.03-2.502c-0.022-0.368-0.096-0.546-0.469-0.626c-0.093-0.023-0.201-0.035-0.293-0.044
			c-0.081-0.009-0.129-0.048-0.129-0.108c0-0.124,0.137-0.124,0.228-0.124h2.353c0.094,0,0.224,0,0.224,0.124
			c0,0.086-0.085,0.1-0.125,0.106l-0.123,0.019l-0.167,0.026c-0.273,0.05-0.373,0.209-0.398,0.626
			c-0.019,0.309-0.02,6.551,0.043,7.065c0.036,0.362,0.114,0.566,0.419,0.605c0.065,0.009,0.114,0.019,0.155,0.026
			c0.059,0.012,0.101,0.02,0.163,0.02c0.098,0,0.132,0.06,0.132,0.11C45.553,26.843,45.514,26.914,45.329,26.914L45.329,26.914z"/>
		<path style="fill:#FFFFFF;" d="M46.99,26.915c-0.067,0-0.224,0-0.224-0.132c0-0.05,0.034-0.11,0.131-0.11
			c0.119,0,0.278-0.032,0.342-0.045c0.193-0.038,0.253-0.235,0.306-0.607c0.057-0.483,0.057-1.38,0.057-2.517v-2.045
			c0-1.812,0-2.138-0.023-2.509c-0.021-0.37-0.095-0.548-0.468-0.627c-0.085-0.021-0.215-0.034-0.326-0.034
			c-0.077,0-0.133-0.046-0.133-0.108c0-0.133,0.153-0.133,0.226-0.133c0.267,0,0.52,0,0.776,0.011c-0.002,0,1.275,0.005,2.205,0.005
			c0.464,0,0.842-0.001,0.93-0.005c0.084-0.004,0.181-0.005,0.275-0.007c0.145-0.003,0.295-0.005,0.349-0.018
			c0.022-0.006,0.05-0.02,0.078-0.033c0.044-0.022,0.09-0.046,0.132-0.046c0.03,0,0.058,0.014,0.076,0.036
			c0.014,0.02,0.029,0.054,0.014,0.109c-0.006,0.018-0.028,0.066-0.066,0.147c-0.04,0.089-0.1,0.218-0.177,0.391l-0.126,0.295
			l-0.14,0.33c-0.029,0.063-0.065,0.141-0.137,0.141c-0.046-0.004-0.074-0.019-0.092-0.042c-0.032-0.04-0.03-0.101-0.023-0.154
			l0.008-0.055c0.014-0.104,0.036-0.277,0.007-0.36c-0.05-0.15-0.106-0.157-0.604-0.188l-0.088-0.004
			c-0.195-0.012-1.45-0.023-1.589-0.023c-0.009,0-0.031,0-0.031,0.078v3.208c0,0.077,0.01,0.077,0.031,0.077
			c0.333,0,1.441-0.001,1.688-0.022c0.284-0.024,0.428-0.047,0.52-0.15c0.095-0.11,0.142-0.165,0.204-0.165
			c0.036,0,0.098,0.017,0.098,0.132l-0.004,0.176c-0.002,0.142-0.004,0.337-0.004,0.469l-0.003,0.45l-0.001,0.166
			c0.003,0.113,0.005,0.183-0.033,0.222l-0.012,0.013l-0.056,0.014c-0.094,0-0.11-0.088-0.118-0.135l-0.012-0.07
			c-0.011-0.071-0.021-0.136-0.047-0.189c-0.073-0.148-0.187-0.312-0.618-0.356c-0.318-0.036-1.408-0.058-1.59-0.058
			c-0.025,0-0.042,0.007-0.042,0.042v1.024l-0.002,0.512c-0.003,0.548-0.007,1.299,0.002,1.475c0.032,0.754,0.149,0.914,1.31,0.914
			c0.48,0,0.84-0.043,1.069-0.127c0.406-0.155,0.671-0.458,0.774-0.672c0.069-0.142,0.111-0.208,0.194-0.208
			c0.045,0,0.081,0.017,0.102,0.047c0.03,0.042,0.032,0.101,0.005,0.178c-0.023,0.065-0.171,0.389-0.303,0.676l-0.125,0.274
			c-0.139,0.308-0.229,0.319-0.682,0.329c-0.255,0.004-0.626,0.007-1.031,0.007l-0.921-0.003h-0.114l-0.744-0.002
			c-0.275,0-0.474,0.001-0.538,0.005l-0.378,0.003L46.99,26.915L46.99,26.915z"/>
		<path style="fill:#FFFFFF;" d="M76.794,26.915c-0.067,0-0.224,0-0.224-0.132c0-0.05,0.034-0.11,0.132-0.11
			c0.118,0,0.277-0.032,0.341-0.045c0.193-0.038,0.254-0.235,0.306-0.607c0.057-0.483,0.057-1.38,0.057-2.517v-2.045
			c0-1.812,0-2.138-0.023-2.509c-0.02-0.37-0.093-0.548-0.467-0.627c-0.085-0.021-0.215-0.034-0.327-0.034
			c-0.076,0-0.132-0.046-0.132-0.108c0-0.133,0.153-0.133,0.226-0.133c0.268,0,0.52,0,0.776,0.011c-0.002,0,1.275,0.005,2.205,0.005
			c0.464,0,0.842-0.001,0.93-0.005c0.084-0.004,0.182-0.005,0.274-0.007c0.145-0.003,0.297-0.005,0.35-0.018
			c0.021-0.004,0.049-0.018,0.077-0.032c0.045-0.023,0.09-0.047,0.134-0.047c0.03,0,0.058,0.014,0.075,0.036
			c0.015,0.019,0.029,0.053,0.015,0.109c-0.006,0.018-0.03,0.07-0.071,0.161c-0.041,0.087-0.098,0.213-0.171,0.378l-0.126,0.295
			l-0.14,0.33c-0.028,0.063-0.064,0.141-0.137,0.141c-0.047-0.004-0.074-0.019-0.092-0.042c-0.031-0.039-0.029-0.097-0.024-0.154
			l0.007-0.059c0.015-0.102,0.037-0.275,0.009-0.357c-0.051-0.15-0.107-0.157-0.605-0.188l-0.088-0.004
			c-0.193-0.012-1.449-0.023-1.589-0.023c-0.008,0-0.03,0-0.03,0.078v3.208c0,0.077,0.009,0.077,0.03,0.077
			c0.333,0,1.441-0.001,1.69-0.022c0.282-0.024,0.428-0.047,0.519-0.15c0.096-0.11,0.143-0.165,0.205-0.165
			c0.035,0,0.097,0.017,0.097,0.132l-0.003,0.176c-0.002,0.142-0.004,0.337-0.004,0.469l-0.002,0.45l-0.001,0.166l0.001,0.045
			c0.002,0.069,0.004,0.138-0.033,0.177l-0.011,0.013l-0.057,0.014c-0.094,0-0.111-0.088-0.119-0.135l-0.011-0.069
			c-0.01-0.07-0.021-0.137-0.048-0.19c-0.072-0.148-0.185-0.311-0.618-0.356c-0.317-0.036-1.407-0.058-1.59-0.058
			c-0.026,0-0.043,0.007-0.043,0.042v1.024l-0.002,0.512c-0.002,0.548-0.006,1.299,0.002,1.475c0.033,0.754,0.15,0.914,1.311,0.914
			c0.48,0,0.839-0.043,1.069-0.127c0.407-0.155,0.671-0.458,0.774-0.672c0.07-0.142,0.111-0.208,0.195-0.208
			c0.044,0,0.081,0.017,0.103,0.048c0.03,0.042,0.03,0.101,0.004,0.178c-0.024,0.064-0.171,0.388-0.303,0.675l-0.126,0.274
			c-0.14,0.308-0.23,0.319-0.681,0.329c-0.255,0.004-0.626,0.007-1.031,0.007l-0.921-0.003h-0.114l-0.745-0.002
			c-0.275,0-0.475,0.001-0.538,0.005l-0.378,0.003L76.794,26.915L76.794,26.915z"/>
		<path style="fill:#FFFFFF;" d="M76.44,26.914h-0.826c-0.641,0-0.947-0.055-1.263-0.225c-0.468-0.25-0.852-0.755-1.432-1.521
			l-0.151-0.198c-0.288-0.378-0.643-0.915-0.925-1.348c-0.2-0.304-0.37-0.562-0.465-0.687c-0.039-0.036-0.065-0.053-0.12-0.053
			c-0.048,0-0.142,0.041-0.176,0.057l-1.193,0.493l0.002,0.391c0,1.056,0.009,1.684,0.07,2.193c0.037,0.361,0.115,0.565,0.42,0.605
			c0.073,0.011,0.115,0.021,0.152,0.029c0.047,0.01,0.076,0.017,0.131,0.017c0.097,0,0.131,0.059,0.131,0.11
			c0,0.06-0.04,0.132-0.223,0.132h-2.287c-0.068,0-0.225,0-0.225-0.132c0-0.051,0.034-0.11,0.132-0.11
			c0.106,0,0.246-0.022,0.341-0.045c0.194-0.039,0.254-0.234,0.306-0.606c0.06-0.502,0.064-1.474,0.064-2.511v-2.045
			c0-1.812,0-2.138-0.023-2.509c-0.022-0.37-0.094-0.548-0.469-0.627h-0.001l-0.044-0.011c-0.075-0.019-0.138-0.035-0.221-0.035
			c-0.076,0-0.133-0.046-0.133-0.107c0-0.121,0.134-0.121,0.231-0.121H70.8c0.706,0,1.513,0.062,2.152,0.519
			c0.318,0.228,0.823,0.888,0.823,1.679c0,0.81-0.261,1.445-1.587,2.274c0.311,0.398,0.624,0.814,0.93,1.219
			c0.619,0.822,1.205,1.598,1.651,2.075c0.603,0.636,1.085,0.776,1.396,0.827c0.218,0.032,0.379,0.032,0.449,0.032
			c0.077,0,0.142,0.051,0.142,0.11C76.757,26.905,76.615,26.914,76.44,26.914L76.44,26.914z M70.743,18.498
			c-0.349,0-0.656,0.035-0.769,0.067c-0.043,0.019-0.064,0.051-0.064,0.103l-0.035,4.227v0v0.062c-0.008-0.024,1-0.454,1.534-0.722
			c0.746-0.373,1.227-0.963,1.256-1.538c0.036-0.706-0.138-1.281-0.501-1.663C71.83,18.683,71.339,18.498,70.743,18.498
			L70.743,18.498z"/>
	</g>
	<path style="fill:#FFFFFF;" d="M8.251,28.7c-0.43,0.17-0.157,0.783-0.437,0.552c-0.773-0.635-2.052-2.185-2.433-4.034
		c-0.232-1.127-0.116-2.174,0.153-2.898c0.268-0.724,0.703-1.143,0.861-1.34c0.22-0.278,0.329-0.384,0.276-0.562
		c-0.058-0.192-0.268-0.232-0.529-0.134c-0.28,0.105-1.165,0.379-2.087,0.56c-1.486,0.294-1.893-0.005-1.893-0.005
		c1.466-0.488,1.368-1.219,1.304-1.412c-0.064-0.194-0.483-0.548-0.483-0.097c0,0.451-1.031,0.742-2.255,1.03
		c-1.224,0.291-0.566,0.897-0.436,0.981c0.131,0.085,1.16,0.639,3.002,0.472c0.843-0.077,1.39-0.213,1.78-0.302
		c-0.085,0.176-0.162,0.354-0.231,0.535c-0.252,0.833-0.547,2.117,0.168,4.204c0.805,2.347,2.773,3.933,3.189,4.25
		c0.023,0.02,0.192,0.14,0.28,0.182c0.125,0.056,0.392,0.017,0.47-0.167c0.072-0.172,0.008-0.362-0.058-0.49
		c-0.108-0.188,0.069-0.199,0.21-0.152c0.141,0.045,0.325,0.158,0.51,0.481c0.217,0.379,0.346,1.001,0.143,1.193
		c-0.091,0.084-0.187,0.023-0.247-0.045c-0.05-0.052-0.175-0.062-0.203,0.022c-0.028,0.086-0.005,0.245,0.124,0.384
		c0.128,0.138,0.296,0.148,0.458,0.115c0.15-0.047,0.323-0.181,0.386-0.362c0.305-0.882-0.121-1.761-0.684-2.447
		C9.237,28.828,8.753,28.5,8.251,28.7z M26.451,20.359c-1.225-0.289-2.255-0.579-2.255-1.03c0-0.451-0.419-0.097-0.484,0.097
		c-0.064,0.194-0.161,0.924,1.305,1.412c0,0-0.408,0.299-1.893,0.005c-0.921-0.181-1.806-0.454-2.087-0.56
		c-0.262-0.098-0.47-0.058-0.528,0.134c-0.053,0.178,0.056,0.285,0.276,0.562c0.156,0.197,0.592,0.616,0.861,1.34
		c0.268,0.725,0.384,1.771,0.153,2.898c-0.381,1.85-1.66,3.4-2.433,4.034c-0.281,0.231-0.007-0.383-0.437-0.552
		c-0.503-0.199-0.986,0.128-1.34,0.514c-0.564,0.686-0.989,1.565-0.684,2.447c0.063,0.182,0.236,0.315,0.386,0.362
		c0.162,0.033,0.33,0.023,0.458-0.115c0.129-0.139,0.152-0.298,0.124-0.384c-0.027-0.085-0.153-0.075-0.203-0.022
		c-0.06,0.068-0.157,0.129-0.247,0.045c-0.204-0.192-0.074-0.814,0.143-1.193c0.186-0.323,0.369-0.436,0.51-0.481
		c0.14-0.047,0.317-0.037,0.21,0.152c-0.067,0.128-0.131,0.318-0.058,0.49c0.078,0.184,0.345,0.223,0.47,0.167
		c0.088-0.042,0.256-0.161,0.28-0.182c0.415-0.317,2.384-1.903,3.189-4.25c0.715-2.087,0.42-3.371,0.168-4.204
		c-0.068-0.182-0.146-0.36-0.23-0.535c0.389,0.089,0.937,0.225,1.78,0.302c1.842,0.168,2.871-0.386,3.002-0.472
		C27.017,21.256,27.674,20.65,26.451,20.359z M20.461,26.011c0,0,0.211-1.94-0.465-4.711c-0.223-0.91-0.362-1.391-0.451-1.932
		l-0.007-0.003c-0.105-0.635-0.193-1.283-0.263-1.942c0.477,0.389,0.873,0.764,1.138,1.06c0.478,0.538,0.881,1.486,0.881,1.486
		s0.302,0.128,0.683,0.197c-0.544-1.843-0.882-4.044-0.966-6.107c-0.127-3.134,0.284-6.091,1.104-8.649
		c0.01-0.033,0.03-0.061,0.013-0.09c-0.018-0.03-0.05-0.037-0.083-0.051c-0.089-0.036-0.179-0.072-0.269-0.108
		c-0.01-0.003-0.02-0.007-0.029-0.01c-0.146-0.058-0.313-0.124-0.426-0.163c-0.179-0.064-0.245-0.081-0.245-0.081
		s-0.037,0.113-0.052,0.205c-0.004,0.023-0.013,0.069-0.004,0.091c0.008,0.019,0.013,0.028,0.029,0.041
		c0.112,0.088,0.282,0.244,0.431,0.385c-0.862,2.462-1.354,5.302-1.354,8.327c0,0.378,0.001,0.713,0.004,1.022
		c-0.274-0.193-0.635-0.439-1.051-0.699c-0.005-0.252-0.007-0.505-0.007-0.76c0.008-3.128,0.413-6.09,1.128-8.737
		c0.014-0.05,0.026-0.094,0.005-0.132c-0.023-0.042-0.071-0.048-0.124-0.063c-0.135-0.04-0.272-0.079-0.408-0.115
		c-0.046-0.012-0.082-0.029-0.131-0.009c-0.025,0.01-0.041,0.051-0.058,0.092c-1.033,2.532-1.694,5.573-1.882,8.89
		c-0.275-0.139-0.557-0.271-0.844-0.393c-0.216-0.092-0.48-0.209-0.783-0.348V4.446c0.225-0.095,0.384-0.318,0.384-0.576
		c0-0.345-0.279-0.625-0.624-0.625c-0.344,0-0.624,0.28-0.624,0.625c0,0.256,0.155,0.477,0.377,0.573v8.032
		c-0.281-0.133-0.584-0.279-0.904-0.436c-0.024-4.546-0.024-10.726-0.024-10.726l2.344,0.047c1.429,0.024,2.355,0.169,2.722,0.72
		c0.254,0.392,0.322,0.553,0.392,0.713c0.068,0.185,0.138,0.231,0.23,0.231c0.069,0,0.174-0.112,0.129-0.243
		c-0.035-0.102-0.905-2.075-0.99-2.278C19.22,0.106,19.148,0,19.055,0c-0.161,0-0.336,0.242-0.957,0.289
		c-0.667,0.07-1.402,0.104-1.677,0.104h-5.66c-0.275,0-1.01-0.035-1.677-0.104C8.462,0.242,8.288,0,8.127,0
		c-0.094,0-0.165,0.106-0.33,0.503C7.712,0.706,6.842,2.679,6.806,2.781c-0.045,0.131,0.06,0.243,0.129,0.243
		c0.091,0,0.162-0.046,0.229-0.231c0.07-0.16,0.139-0.322,0.393-0.713c0.367-0.551,1.293-0.696,2.721-0.72l2.344-0.047
		c0,0,0,5.32-0.019,9.719c-0.3-0.158-0.603-0.32-0.907-0.485V4.444c0.223-0.095,0.38-0.317,0.38-0.574
		c0-0.345-0.28-0.625-0.624-0.625c-0.345,0-0.624,0.28-0.624,0.625c0,0.258,0.158,0.48,0.382,0.575l0,5.835
		c-0.751-0.414-1.494-0.841-2.179-1.26L8.966,8.775c-0.063-0.263-0.194-0.78-0.352-1.298C8.301,6.452,7.709,5.222,6.623,4.408
		C6.054,3.98,4.81,3.751,4.432,4.939C4.358,5.171,4.341,5.448,4.388,5.737c0.1,0.62,0.417,1.296,1.026,2.083
		c0.672,1.922,0.697,4.398,0.664,6.245c-0.035,1.909-0.181,3.999-0.76,5.867c-0.016,0.052-0.018,0.089,0.001,0.12
		c0.019,0.032,0.096,0.03,0.17,0.02c0.227-0.024,0.464-0.086,0.709-0.151c0.071-0.02,0.157-0.057,0.204-0.113
		c0.048-0.056,0.076-0.141,0.1-0.236c0.455-1.87,0.58-3.844,0.484-5.727c-0.091-1.798-0.187-3.358-0.619-4.949
		C6.71,9.248,7.104,9.62,7.557,10.015c0.146,0.128,0.295,0.255,0.447,0.382c0.071,1.014,0.101,2.052,0.103,3.122
		c0.006,2.104-0.169,4.133-0.497,6.042h0.009C7.53,20.03,7.398,20.498,7.202,21.3c-0.677,2.771-0.464,4.711-0.464,4.711
		s1.853,0.579,3.326,2.149c1.056,1.128,2.574,1.204,3.527,1.247l0.001,0.009v-0.009c0.003,0,0.005,0,0.008,0
		c0.002,0,0.005,0,0.007,0v0.009l0.001-0.009c0.953-0.043,2.471-0.119,3.528-1.247C18.608,26.59,20.461,26.011,20.461,26.011z
		 M6.264,7.034C4.697,5.538,4.786,4.718,5.185,4.441c0.397-0.279,1.56-0.02,2.075,1.543C7.54,6.838,7.67,7.659,7.715,7.996
		l0.017,0.189C7.124,7.769,6.619,7.375,6.264,7.034z M15.491,16.38c0.009,0.197,0.031,0.433,0.079,0.664
		c0.039,0.181,0.092,0.358,0.18,0.516c0.087,0.155,0.221,0.303,0.423,0.36c0.077,0.021,0.151,0.033,0.226,0.033
		c0.002,0,0.004,0,0.007,0c0.2,0,0.386-0.092,0.501-0.233c0.118-0.143,0.171-0.323,0.172-0.508c0-0.237-0.089-0.489-0.27-0.707
		c-0.251-0.3-0.544-0.447-0.835-0.528c0-0.019,0.001-0.03,0.001-0.03l0-0.002v-0.538c0.26,0.129,0.521,0.256,0.783,0.383
		c0.269,0.129,0.536,0.273,0.798,0.428c0.016,0.714,0.051,1.437,0.112,2.167c0.026,0.308,0.056,0.615,0.089,0.92
		c0.023,0.168-0.197,0.192-0.483-0.05c-0.666-0.564-1.281-0.796-1.847-0.997c-0.319-0.113-0.54-0.33-0.634-0.613
		c-0.051-0.182-0.088-0.394-0.119-0.627c-0.011-0.091-0.021-0.191-0.029-0.296c-0.006-0.074-0.012-0.221-0.017-0.423
		c0.178,0.009,0.348,0.022,0.479,0.038C15.24,16.351,15.369,16.364,15.491,16.38z M15.986,16.492
		c0.165,0.064,0.314,0.163,0.448,0.323c0.112,0.135,0.157,0.281,0.157,0.396c0.001,0.091-0.027,0.159-0.059,0.196
		c-0.033,0.036-0.063,0.054-0.133,0.058c-0.026,0-0.058-0.004-0.096-0.015c-0.03-0.008-0.076-0.038-0.129-0.131
		C16.066,17.139,16.01,16.791,15.986,16.492z M15.487,15.162v0.725c-0.113-0.012-0.222-0.022-0.322-0.035
		c-0.155-0.019-0.349-0.032-0.548-0.044c-0.005-0.309-0.01-0.683-0.015-1.106C14.895,14.858,15.19,15.011,15.487,15.162z
		 M13.579,24.581c0.227,0.002,0.386-0.028,0.554-0.091c0.168-0.064,0.315-0.15,0.315-0.149c0.062-0.047,0.129-0.045,0.156,0
		c0.03,0.038,0.005,0.114-0.073,0.175c-0.011,0.006-0.379,0.38-0.946,0.383h-0.012c-0.568-0.003-0.935-0.376-0.947-0.383
		c-0.078-0.061-0.102-0.137-0.072-0.175c0.026-0.045,0.093-0.047,0.155,0c0-0.001,0.15,0.085,0.319,0.149
		C13.197,24.553,13.353,24.583,13.579,24.581z M11.696,13.036c0.294,0.183,0.592,0.363,0.893,0.542
		c-0.007,0.898-0.015,1.669-0.025,2.23c-0.198,0.011-0.392,0.024-0.547,0.044c-0.1,0.013-0.209,0.023-0.322,0.035V13.036z
		 M9.427,19.269c0.031-0.293,0.06-0.587,0.085-0.885c0.198-2.399,0.15-4.719-0.104-6.892c0.578,0.424,1.179,0.837,1.801,1.236v3.208
		l0,0.008c0,0,0,0.011,0,0.031c-0.29,0.082-0.583,0.228-0.834,0.528c-0.182,0.219-0.271,0.47-0.271,0.708
		c0,0.185,0.054,0.365,0.172,0.508c0.115,0.141,0.3,0.233,0.501,0.233c0.002,0,0.004,0,0.006,0c0.074,0,0.15-0.011,0.226-0.032
		c0.202-0.058,0.337-0.206,0.423-0.361c0.193-0.355,0.243-0.83,0.258-1.179c0.123-0.016,0.252-0.029,0.387-0.045
		c0.13-0.015,0.299-0.028,0.477-0.037c-0.006,0.202-0.011,0.348-0.017,0.423c-0.009,0.105-0.019,0.206-0.029,0.296
		c-0.032,0.233-0.068,0.444-0.119,0.627c-0.089,0.264-0.269,0.468-0.631,0.624c-0.362,0.154-1.132,0.349-1.833,0.987
		C9.641,19.512,9.418,19.405,9.427,19.269z M11.196,16.492c-0.011,0.146-0.03,0.305-0.061,0.45
		c-0.031,0.151-0.076,0.288-0.126,0.377c-0.053,0.092-0.099,0.122-0.129,0.13c-0.038,0.011-0.07,0.015-0.096,0.015
		c-0.071-0.003-0.1-0.022-0.134-0.058c-0.031-0.037-0.058-0.105-0.058-0.196c0-0.115,0.045-0.261,0.158-0.396
		C10.882,16.655,11.032,16.557,11.196,16.492z M10.011,21.919c-0.057-0.082,0.022-0.165,0.022-0.165s0.17-0.13,0.466-0.3
		c0.296-0.17,0.835-0.405,1.283-0.535c0.171-0.05,0.34-0.079,0.54-0.133c0.217-0.059,0.199-0.268,0.213-0.319
		c0.017-0.066,0.063-0.124,0.17-0.119c0.124,0.004,0.152,0.082,0.152,0.121c0,0.04,0,0.589,0,0.589s-0.003,0.071-0.031,0.102
		c-0.035,0.042-0.056,0.048-0.112,0.052c-0.043,0.004-0.289-0.019-1.184,0.185c-0.896,0.205-1.344,0.522-1.344,0.522
		S10.067,22.003,10.011,21.919z M10.988,22.539c0.538-0.293,1.539-0.502,1.539-0.502v1.095h-2.195
		C10.332,23.132,10.39,22.863,10.988,22.539z M15.116,27.016c-0.195,0.098-0.443-0.026-0.648-0.184
		c-0.297-0.231-1.462-0.231-1.759,0c-0.204,0.158-0.453,0.282-0.648,0.184c-0.18-0.088-0.296-0.54-0.049-0.956
		c0.246-0.413,0.517-0.293,0.758-0.177c0.231,0.113,1.398,0.119,1.635,0c0.229-0.114,0.512-0.236,0.758,0.177
		C15.411,26.476,15.295,26.928,15.116,27.016z M14.654,23.132v-1.095c0,0,1.001,0.209,1.539,0.502
		c0.597,0.325,0.655,0.593,0.655,0.593H14.654z M16.993,21.919c0,0-0.448-0.317-1.344-0.522c-0.896-0.204-1.143-0.181-1.185-0.185
		c-0.055-0.004-0.077-0.01-0.112-0.052c-0.027-0.032-0.03-0.102-0.03-0.102s0-0.549,0-0.589c0-0.04,0.028-0.117,0.152-0.121
		c0.106-0.004,0.152,0.053,0.17,0.119c0.014,0.051-0.005,0.261,0.213,0.319c0.2,0.053,0.368,0.083,0.539,0.133
		c0.448,0.13,0.988,0.365,1.284,0.535c0.296,0.17,0.465,0.3,0.465,0.3s0.078,0.083,0.022,0.165
		C17.111,22.003,16.993,21.919,16.993,21.919z"/>
</g>
</svg>
